%!PS-Adobe-2.0 EPSF-2.0
%%Title: Figs/complex.dia
%%Creator: Dia v0.97+git
%%CreationDate: Fri Jun  4 08:57:59 2021
%%For: cef
%%Orientation: Portrait
%%Magnification: 1.0000
%%BoundingBox: 0 0 339 317
%%BeginSetup
%%EndSetup
%%EndComments
%%BeginProlog
[ /.notdef /.notdef /.notdef /.notdef /.notdef /.notdef /.notdef /.notdef /.notdef /.notdef
/.notdef /.notdef /.notdef /.notdef /.notdef /.notdef /.notdef /.notdef /.notdef /.notdef
/.notdef /.notdef /.notdef /.notdef /.notdef /.notdef /.notdef /.notdef /.notdef /.notdef
/.notdef /.notdef /space /exclam /quotedbl /numbersign /dollar /percent /ampersand /quoteright
/parenleft /parenright /asterisk /plus /comma /hyphen /period /slash /zero /one
/two /three /four /five /six /seven /eight /nine /colon /semicolon
/less /equal /greater /question /at /A /B /C /D /E
/F /G /H /I /J /K /L /M /N /O
/P /Q /R /S /T /U /V /W /X /Y
/Z /bracketleft /backslash /bracketright /asciicircum /underscore /quoteleft /a /b /c
/d /e /f /g /h /i /j /k /l /m
/n /o /p /q /r /s /t /u /v /w
/x /y /z /braceleft /bar /braceright /asciitilde /.notdef /.notdef /.notdef
/.notdef /.notdef /.notdef /.notdef /.notdef /.notdef /.notdef /.notdef /.notdef /.notdef
/.notdef /.notdef /.notdef /.notdef /.notdef /.notdef /.notdef /.notdef /.notdef /.notdef
/.notdef /.notdef /.notdef /.notdef /.notdef /.notdef /.notdef /.notdef /.notdef /.notdef
/space /exclamdown /cent /sterling /currency /yen /brokenbar /section /dieresis /copyright
/ordfeminine /guillemotleft /logicalnot /hyphen /registered /macron /degree /plusminus /twosuperior /threesuperior
/acute /mu /paragraph /periodcentered /cedilla /onesuperior /ordmasculine /guillemotright /onequarter /onehalf
/threequarters /questiondown /Agrave /Aacute /Acircumflex /Atilde /Adieresis /Aring /AE /Ccedilla
/Egrave /Eacute /Ecircumflex /Edieresis /Igrave /Iacute /Icircumflex /Idieresis /Eth /Ntilde
/Ograve /Oacute /Ocircumflex /Otilde /Odieresis /multiply /Oslash /Ugrave /Uacute /Ucircumflex
/Udieresis /Yacute /Thorn /germandbls /agrave /aacute /acircumflex /atilde /adieresis /aring
/ae /ccedilla /egrave /eacute /ecircumflex /edieresis /igrave /iacute /icircumflex /idieresis
/eth /ntilde /ograve /oacute /ocircumflex /otilde /odieresis /divide /oslash /ugrave
/uacute /ucircumflex /udieresis /yacute /thorn /ydieresis] /isolatin1encoding exch def
/cp {closepath} bind def
/c {curveto} bind def
/f {fill} bind def
/a {arc} bind def
/ef {eofill} bind def
/ex {exch} bind def
/gr {grestore} bind def
/gs {gsave} bind def
/sa {save} bind def
/rs {restore} bind def
/l {lineto} bind def
/m {moveto} bind def
/rm {rmoveto} bind def
/n {newpath} bind def
/s {stroke} bind def
/sh {show} bind def
/slc {setlinecap} bind def
/slj {setlinejoin} bind def
/slw {setlinewidth} bind def
/srgb {setrgbcolor} bind def
/rot {rotate} bind def
/sc {scale} bind def
/sd {setdash} bind def
/ff {findfont} bind def
/sf {setfont} bind def
/scf {scalefont} bind def
/sw {stringwidth pop} bind def
/tr {translate} bind def

/ellipsedict 8 dict def
ellipsedict /mtrx matrix put
/ellipse
{ ellipsedict begin
   /endangle exch def
   /startangle exch def
   /yrad exch def
   /xrad exch def
   /y exch def
   /x exch def   /savematrix mtrx currentmatrix def
   x y tr xrad yrad sc
   0 0 1 startangle endangle arc
   savematrix setmatrix
   end
} def

/mergeprocs {
dup length
3 -1 roll
dup
length
dup
5 1 roll
3 -1 roll
add
array cvx
dup
3 -1 roll
0 exch
putinterval
dup
4 2 roll
putinterval
} bind def
/dpi_x 300 def
/dpi_y 300 def
/conicto {
    /to_y exch def
    /to_x exch def
    /conic_cntrl_y exch def
    /conic_cntrl_x exch def
    currentpoint
    /p0_y exch def
    /p0_x exch def
    /p1_x p0_x conic_cntrl_x p0_x sub 2 3 div mul add def
    /p1_y p0_y conic_cntrl_y p0_y sub 2 3 div mul add def
    /p2_x p1_x to_x p0_x sub 1 3 div mul add def
    /p2_y p1_y to_y p0_y sub 1 3 div mul add def
    p1_x p1_y p2_x p2_y to_x to_y curveto
} bind def
/start_ol { gsave 1.1 dpi_x div dup scale} bind def
/end_ol { closepath fill grestore } bind def
28.346000 -28.346000 scale
5.050000 -5.050000 translate
%%EndProlog


0.100000 slw
[] 0 sd
0 slc
0.000000 0.000000 0.000000 srgb
n -5.000000 0.000000 m 4.513197 0.000000 l s
[] 0 sd
0 slj
0 slc
n 4.888197 0.000000 m 4.388197 0.250000 l 4.513197 0.000000 l 4.388197 -0.250000 l ef
n 4.888197 0.000000 m 4.388197 0.250000 l 4.513197 0.000000 l 4.388197 -0.250000 l cp s
0.100000 slw
[] 0 sd
0 slc
n 0.000000 5.000000 m 0.000000 -4.513197 l s
[] 0 sd
0 slj
0 slc
n 0.000000 -4.888197 m 0.250000 -4.388197 l 0.000000 -4.513197 l -0.250000 -4.388197 l ef
n 0.000000 -4.888197 m 0.250000 -4.388197 l 0.000000 -4.513197 l -0.250000 -4.388197 l cp s
gsave 5.400000 0.250000 translate 0.035278 -0.035278 scale
start_ol
3977 3045 moveto
4261 2950 4530 2637 conicto
4800 2325 5071 1779 conicto
5968 0 lineto
5018 0 lineto
4183 1670 lineto
3859 2324 3555 2538 conicto
3251 2752 2726 2752 conicto
1763 2752 lineto
1763 0 lineto
879 0 lineto
879 6528 lineto
2874 6528 lineto
3994 6528 4545 6058 conicto
5097 5588 5097 4639 conicto
5097 4020 4810 3611 conicto
4524 3203 3977 3045 conicto
1763 5824 moveto
1763 3456 lineto
2874 3456 lineto
3513 3456 3839 3757 conicto
4165 4059 4165 4644 conicto
4165 5230 3839 5527 conicto
3513 5824 2874 5824 conicto
1763 5824 lineto
end_ol grestore 
gsave 6.169276 0.250000 translate 0.035278 -0.035278 scale
start_ol
5036 2704 moveto
5036 2304 lineto
1334 2304 lineto
1387 1460 1835 1018 conicto
2284 576 3084 576 conicto
3548 576 3983 688 conicto
4419 800 4848 1024 conicto
4848 256 lineto
4415 68 3960 -30 conicto
3505 -128 3036 -128 conicto
1864 -128 1179 559 conicto
494 1247 494 2420 conicto
494 3632 1144 4344 conicto
1794 5056 2896 5056 conicto
3885 5056 4460 4423 conicto
5036 3791 5036 2704 conicto
4231 2944 moveto
4222 3586 3861 3969 conicto
3500 4352 2905 4352 conicto
2232 4352 1827 3982 conicto
1422 3612 1361 2939 conicto
4231 2944 lineto
end_ol grestore 
gsave -0.750000 -5.000000 translate 0.035278 -0.035278 scale
start_ol
879 6528 moveto
1763 6528 lineto
1763 0 lineto
879 0 lineto
879 6528 lineto
end_ol grestore 
gsave -0.400328 -5.000000 translate 0.035278 -0.035278 scale
start_ol
4659 3980 moveto
4961 4531 5381 4793 conicto
5801 5056 6370 5056 conicto
7136 5056 7551 4514 conicto
7967 3972 7967 2973 conicto
7967 0 lineto
7158 0 lineto
7158 2946 lineto
7158 3660 6908 4006 conicto
6659 4352 6147 4352 conicto
5521 4352 5158 3931 conicto
4795 3510 4795 2784 conicto
4795 0 lineto
3986 0 lineto
3986 2946 lineto
3986 3665 3736 4008 conicto
3487 4352 2966 4352 conicto
2349 4352 1986 3929 conicto
1623 3506 1623 2784 conicto
1623 0 lineto
814 0 lineto
814 4928 lineto
1623 4928 lineto
1623 4160 lineto
1899 4619 2284 4837 conicto
2669 5056 3198 5056 conicto
3732 5056 4106 4780 conicto
4480 4505 4659 3980 conicto
end_ol grestore 
0.150000 slw
[] 0 sd
0.749020 0.749020 0.749020 srgb
n 0.000000 0.000000 4.000000 4.000000 0 360 ellipse cp s
0.000000 0.000000 0.000000 srgb
gsave 2.200000 -3.600000 translate 0.035278 -0.035278 scale
start_ol
1041 4928 moveto
4865 4928 lineto
4721 4188 lineto
1033 640 lineto
4078 640 lineto
3951 0 lineto
-26 0 lineto
118 740 lineto
3806 4288 lineto
914 4288 lineto
1041 4928 lineto
end_ol grestore 
gsave 2.821911 -3.600000 translate 0.035278 -0.035278 scale
start_ol
949 4032 moveto
6558 4032 lineto
6558 3328 lineto
949 3328 lineto
949 4032 lineto
949 2304 moveto
6558 2304 lineto
6558 1536 lineto
949 1536 lineto
949 2304 lineto
end_ol grestore 
gsave 3.813479 -3.600000 translate 0.035278 -0.035278 scale
start_ol
4813 2770 moveto
4266 0 lineto
3461 0 lineto
3609 759 lineto
3255 313 2802 92 conicto
2349 -128 1794 -128 conicto
1168 -128 768 252 conicto
368 633 368 1229 conicto
368 2081 1052 2576 conicto
1737 3072 2940 3072 conicto
4060 3072 lineto
4104 3301 lineto
4113 3337 4117 3379 conicto
4121 3422 4121 3511 conicto
4121 3909 3804 4130 conicto
3487 4352 2914 4352 conicto
2520 4352 2106 4256 conicto
1693 4160 1256 3968 conicto
1396 4736 lineto
1851 4896 2286 4976 conicto
2721 5056 3128 5056 conicto
3994 5056 4447 4669 conicto
4900 4282 4900 3544 conicto
4900 3396 4878 3195 conicto
4857 2995 4813 2770 conicto
3942 2432 moveto
3137 2432 lineto
2148 2432 1673 2174 conicto
1199 1917 1199 1376 conicto
1199 1002 1442 789 conicto
1685 576 2113 576 conicto
2770 576 3260 1033 conicto
3750 1491 3907 2257 conicto
3942 2432 lineto
end_ol grestore 
gsave 4.540297 -3.600000 translate 0.035278 -0.035278 scale
start_ol
4121 5632 moveto
4121 3200 lineto
6558 3200 lineto
6558 2432 lineto
4121 2432 lineto
4121 0 lineto
3386 0 lineto
3386 2432 lineto
949 2432 lineto
949 3200 lineto
3386 3200 lineto
3386 5632 lineto
4121 5632 lineto
end_ol grestore 
gsave 5.531865 -3.600000 translate 0.035278 -0.035278 scale
start_ol
4436 3008 moveto
4436 3639 4145 3995 conicto
3854 4352 3342 4352 conicto
2970 4352 2644 4171 conicto
2319 3991 2078 3647 conicto
1824 3286 1677 2809 conicto
1531 2333 1531 1859 conicto
1531 1259 1817 917 conicto
2104 576 2607 576 conicto
2988 576 3311 752 conicto
3635 928 3880 1272 conicto
4130 1629 4283 2103 conicto
4436 2577 4436 3008 conicto
1934 4165 moveto
2232 4581 2680 4818 conicto
3128 5056 3618 5056 conicto
4371 5056 4815 4544 conicto
5259 4033 5259 3160 conicto
5259 2446 4998 1776 conicto
4738 1106 4257 586 conicto
3942 242 3530 57 conicto
3119 -128 2669 -128 conicto
2192 -128 1842 98 conicto
1492 324 1273 772 conicto
1129 0 lineto
324 0 lineto
1649 6784 lineto
2454 6784 lineto
1934 4165 lineto
end_ol grestore 
gsave 6.283662 -3.600000 translate 0.035278 -0.035278 scale
start_ol
1641 6784 moveto
2446 6784 lineto
2249 5760 lineto
1444 5760 lineto
1641 6784 lineto
1273 4928 moveto
2078 4928 lineto
1120 0 lineto
315 0 lineto
1273 4928 lineto
end_ol grestore 
gsave 1.700000 -0.300000 translate 0.035278 -0.035278 scale
start_ol
962 2863 moveto
1305 4581 2191 5510 conicto
2861 6208 3600 6208 conicto
4318 6208 4690 5536 conicto
5212 4599 4889 2985 conicto
4582 1451 3708 561 conicto
3028 -128 2293 -128 conicto
1894 -128 1604 64 conicto
1315 256 1134 618 conicto
953 980 898 1385 conicto
806 2083 962 2863 conicto
4087 3200 moveto
4306 4314 4226 4988 conicto
4163 5504 3932 5726 conicto
3763 5888 3501 5888 conicto
3203 5888 2908 5662 conicto
2614 5436 2379 4907 conicto
2145 4378 1865 3200 conicto
4087 3200 lineto
1801 2880 moveto
1664 2112 1643 1499 conicto
1624 1033 1739 688 conicto
1806 481 1987 336 conicto
2168 192 2409 192 conicto
2689 192 2992 451 conicto
3296 710 3539 1283 conicto
3783 1857 4014 2880 conicto
1801 2880 lineto
end_ol grestore 
0.030000 slw
[0.100000] 0 sd
0 slc
n 3.038732 -2.517503 m 0.040000 -2.520000 l s
0.030000 slw
[0.100000] 0 sd
0 slc
n 3.100000 0.000000 m 3.113364 -2.442151 l s
gsave 2.700000 0.967678 translate 0.035278 -0.035278 scale
start_ol
4813 2770 moveto
4266 0 lineto
3461 0 lineto
3609 759 lineto
3255 313 2802 92 conicto
2349 -128 1794 -128 conicto
1168 -128 768 252 conicto
368 633 368 1229 conicto
368 2081 1052 2576 conicto
1737 3072 2940 3072 conicto
4060 3072 lineto
4104 3301 lineto
4113 3337 4117 3379 conicto
4121 3422 4121 3511 conicto
4121 3909 3804 4130 conicto
3487 4352 2914 4352 conicto
2520 4352 2106 4256 conicto
1693 4160 1256 3968 conicto
1396 4736 lineto
1851 4896 2286 4976 conicto
2721 5056 3128 5056 conicto
3994 5056 4447 4669 conicto
4900 4282 4900 3544 conicto
4900 3396 4878 3195 conicto
4857 2995 4813 2770 conicto
3942 2432 moveto
3137 2432 lineto
2148 2432 1673 2174 conicto
1199 1917 1199 1376 conicto
1199 1002 1442 789 conicto
1685 576 2113 576 conicto
2770 576 3260 1033 conicto
3750 1491 3907 2257 conicto
3942 2432 lineto
end_ol grestore 
gsave -1.003030 -2.170710 translate 0.035278 -0.035278 scale
start_ol
4436 3008 moveto
4436 3639 4145 3995 conicto
3854 4352 3342 4352 conicto
2970 4352 2644 4171 conicto
2319 3991 2078 3647 conicto
1824 3286 1677 2809 conicto
1531 2333 1531 1859 conicto
1531 1259 1817 917 conicto
2104 576 2607 576 conicto
2988 576 3311 752 conicto
3635 928 3880 1272 conicto
4130 1629 4283 2103 conicto
4436 2577 4436 3008 conicto
1934 4165 moveto
2232 4581 2680 4818 conicto
3128 5056 3618 5056 conicto
4371 5056 4815 4544 conicto
5259 4033 5259 3160 conicto
5259 2446 4998 1776 conicto
4738 1106 4257 586 conicto
3942 242 3530 57 conicto
3119 -128 2669 -128 conicto
2192 -128 1842 98 conicto
1492 324 1273 772 conicto
1129 0 lineto
324 0 lineto
1649 6784 lineto
2454 6784 lineto
1934 4165 lineto
end_ol grestore 
gsave 0.990260 -1.239660 translate 0.035278 -0.035278 scale
start_ol
3994 4224 moveto
3872 4286 3714 4319 conicto
3557 4352 3377 4352 conicto
2734 4352 2253 3859 conicto
1772 3366 1614 2539 conicto
1120 0 lineto
315 0 lineto
1273 4928 lineto
2078 4928 lineto
1925 4206 lineto
2244 4616 2688 4836 conicto
3133 5056 3636 5056 conicto
3767 5056 3894 5041 conicto
4021 5026 4148 4992 conicto
3994 4224 lineto
end_ol grestore 
0.100000 slw
[] 0 sd
1.000000 1.000000 1.000000 srgb
n 3.113775 -2.517441 0.027325 0.025179 0 360 ellipse f
0.000000 0.000000 0.000000 srgb
n 3.113775 -2.517441 0.027325 0.025179 0 360 ellipse cp s
0.100000 slw
[] 0 sd
1.000000 1.000000 1.000000 srgb
n 6.546970 -4.511610 0.100000 0.100000 0 360 ellipse f
n 6.546970 -4.511610 0.100000 0.100000 0 360 ellipse cp s
0.100000 slw
[] 0 sd
0 slc
0.352941 0.352941 0.352941 srgb
n -0.266084 0.022028 3.066163 3.066163 323.541731 359.588371 ellipse s
0.100000 slw
[] 0 sd
0 slc
0.000000 0.000000 0.000000 srgb
n 0.000000 0.000000 m 2.675542 -2.163136 l s
[] 0 sd
0 slj
0 slc
n 2.967157 -2.398902 m 2.735515 -1.890137 l 2.675542 -2.163136 l 2.421160 -2.278957 l ef
n 2.967157 -2.398902 m 2.735515 -1.890137 l 2.675542 -2.163136 l 2.421160 -2.278957 l cp s
0.060000 slw
[] 0 sd
0 slc
0.352941 0.352941 0.352941 srgb
n 2.254190 -1.724180 m 2.266585 -1.707144 l s
0.060000 slw
[] 0 sd
0 slj
0 slc
n 2.524914 -1.607058 m 2.227118 -1.761387 l 2.282332 -1.430553 l s
showpage
