%!PS-Adobe-3.0 EPSF-3.0
%%Title: fun_tan.eps
%%Creator: matplotlib version 3.1.1, http://matplotlib.org/
%%CreationDate: Tue May 19 09:45:50 2020
%%Orientation: portrait
%%BoundingBox: 11.608662607259888 195.37773274058583 600.3913373927402 596.6222672594142
%%EndComments
%%BeginProlog
/mpldict 9 dict def
mpldict begin
/m { moveto } bind def
/l { lineto } bind def
/r { rlineto } bind def
/c { curveto } bind def
/cl { closepath } bind def
/box {
m
1 index 0 r
0 exch r
neg 0 r
cl
} bind def
/clipbox {
box
clip
newpath
} bind def
%!PS-Adobe-3.0 Resource-Font
%%Title: DejaVu Sans
%%Copyright: Copyright (c) 2003 by Bitstream, Inc. All Rights Reserved. Copyright (c) 2006 by Tavmjong Bah. All Rights Reserved. DejaVu changes are in public domain 
%%Creator: Converted from TrueType to type 3 by PPR
25 dict begin
/_d{bind def}bind def
/_m{moveto}_d
/_l{lineto}_d
/_cl{closepath eofill}_d
/_c{curveto}_d
/_sc{7 -1 roll{setcachedevice}{pop pop pop pop pop pop}ifelse}_d
/_e{exec}_d
/FontName /DejaVuSans def
/PaintType 0 def
/FontMatrix[.001 0 0 .001 0 0]def
/FontBBox[-1021 -463 1793 1232]def
/FontType 3 def
/Encoding [ /parenleft /parenright /zero /one /two /three /a /n /t /x /minus ] def
/FontInfo 10 dict dup begin
/FamilyName (DejaVu Sans) def
/FullName (DejaVu Sans) def
/Notice (Copyright (c) 2003 by Bitstream, Inc. All Rights Reserved. Copyright (c) 2006 by Tavmjong Bah. All Rights Reserved. DejaVu changes are in public domain ) def
/Weight (Book) def
/Version (Version 2.35) def
/ItalicAngle 0.0 def
/isFixedPitch false def
/UnderlinePosition -130 def
/UnderlineThickness 90 def
end readonly def
/CharStrings 12 dict dup begin
/.notdef 0 def
/parenleft{390 0 86 -131 310 759 _sc
310 759 _m
266 683 234 609 213 536 _c
191 463 181 389 181 314 _c
181 238 191 164 213 91 _c
234 17 266 -56 310 -131 _c
232 -131 _l
183 -54 146 20 122 94 _c
98 168 86 241 86 314 _c
86 386 98 459 122 533 _c
146 607 182 682 232 759 _c
310 759 _l
_cl}_d
/parenright{390 0 80 -131 304 759 _sc
80 759 _m
158 759 _l
206 682 243 607 267 533 _c
291 459 304 386 304 314 _c
304 241 291 168 267 94 _c
243 20 206 -54 158 -131 _c
80 -131 _l
123 -56 155 17 177 91 _c
198 164 209 238 209 314 _c
209 389 198 463 177 536 _c
155 609 123 683 80 759 _c
_cl}_d
/zero{636 0 66 -13 570 742 _sc
318 664 _m
267 664 229 639 203 589 _c
177 539 165 464 165 364 _c
165 264 177 189 203 139 _c
229 89 267 64 318 64 _c
369 64 407 89 433 139 _c
458 189 471 264 471 364 _c
471 464 458 539 433 589 _c
407 639 369 664 318 664 _c
318 742 _m
399 742 461 709 505 645 _c
548 580 570 486 570 364 _c
570 241 548 147 505 83 _c
461 19 399 -13 318 -13 _c
236 -13 173 19 130 83 _c
87 147 66 241 66 364 _c
66 486 87 580 130 645 _c
173 709 236 742 318 742 _c
_cl}_d
/one{636 0 110 0 544 729 _sc
124 83 _m
285 83 _l
285 639 _l
110 604 _l
110 694 _l
284 729 _l
383 729 _l
383 83 _l
544 83 _l
544 0 _l
124 0 _l
124 83 _l
_cl}_d
/two{{636 0 73 0 536 742 _sc
192 83 _m
536 83 _l
536 0 _l
73 0 _l
73 83 _l
110 121 161 173 226 239 _c
290 304 331 346 348 365 _c
380 400 402 430 414 455 _c
426 479 433 504 433 528 _c
433 566 419 598 392 622 _c
365 646 330 659 286 659 _c
255 659 222 653 188 643 _c
154 632 117 616 78 594 _c
78 694 _l
118 710 155 722 189 730 _c
223 738 255 742 284 742 _c
}_e{359 742 419 723 464 685 _c
509 647 532 597 532 534 _c
532 504 526 475 515 449 _c
504 422 484 390 454 354 _c
446 344 420 317 376 272 _c
332 227 271 164 192 83 _c
_cl}_e}_d
/three{{636 0 76 -13 556 742 _sc
406 393 _m
453 383 490 362 516 330 _c
542 298 556 258 556 212 _c
556 140 531 84 482 45 _c
432 6 362 -13 271 -13 _c
240 -13 208 -10 176 -4 _c
144 1 110 10 76 22 _c
76 117 _l
103 101 133 89 166 81 _c
198 73 232 69 268 69 _c
330 69 377 81 409 105 _c
441 129 458 165 458 212 _c
458 254 443 288 413 312 _c
383 336 341 349 287 349 _c
}_e{202 349 _l
202 430 _l
291 430 _l
339 430 376 439 402 459 _c
428 478 441 506 441 543 _c
441 580 427 609 401 629 _c
374 649 336 659 287 659 _c
260 659 231 656 200 650 _c
169 644 135 635 98 623 _c
98 711 _l
135 721 170 729 203 734 _c
235 739 266 742 296 742 _c
370 742 429 725 473 691 _c
517 657 539 611 539 553 _c
539 513 527 479 504 451 _c
481 423 448 403 406 393 _c
_cl}_e}_d
/a{{613 0 60 -13 522 560 _sc
343 275 _m
270 275 220 266 192 250 _c
164 233 150 205 150 165 _c
150 133 160 107 181 89 _c
202 70 231 61 267 61 _c
317 61 357 78 387 114 _c
417 149 432 196 432 255 _c
432 275 _l
343 275 _l
522 312 _m
522 0 _l
432 0 _l
432 83 _l
411 49 385 25 355 10 _c
325 -5 287 -13 243 -13 _c
187 -13 142 2 109 33 _c
76 64 60 106 60 159 _c
}_e{60 220 80 266 122 298 _c
163 329 224 345 306 345 _c
432 345 _l
432 354 _l
432 395 418 427 391 450 _c
364 472 326 484 277 484 _c
245 484 215 480 185 472 _c
155 464 127 453 100 439 _c
100 522 _l
132 534 164 544 195 550 _c
226 556 256 560 286 560 _c
365 560 424 539 463 498 _c
502 457 522 395 522 312 _c
_cl}_e}_d
/n{634 0 91 0 549 560 _sc
549 330 _m
549 0 _l
459 0 _l
459 327 _l
459 379 448 417 428 443 _c
408 469 378 482 338 482 _c
289 482 251 466 223 435 _c
195 404 181 362 181 309 _c
181 0 _l
91 0 _l
91 547 _l
181 547 _l
181 462 _l
202 494 227 519 257 535 _c
286 551 320 560 358 560 _c
420 560 468 540 500 501 _c
532 462 549 405 549 330 _c
_cl}_d
/t{392 0 27 0 368 702 _sc
183 702 _m
183 547 _l
368 547 _l
368 477 _l
183 477 _l
183 180 _l
183 135 189 106 201 94 _c
213 81 238 75 276 75 _c
368 75 _l
368 0 _l
276 0 _l
206 0 158 13 132 39 _c
106 65 93 112 93 180 _c
93 477 _l
27 477 _l
27 547 _l
93 547 _l
93 702 _l
183 702 _l
_cl}_d
/x{592 0 29 0 559 547 _sc
549 547 _m
351 281 _l
559 0 _l
453 0 _l
294 215 _l
135 0 _l
29 0 _l
241 286 _l
47 547 _l
153 547 _l
298 352 _l
443 547 _l
549 547 _l
_cl}_d
/minus{838 0 106 272 732 355 _sc
106 355 _m
732 355 _l
732 272 _l
106 272 _l
106 355 _l
_cl}_d
end readonly def

/BuildGlyph
 {exch begin
 CharStrings exch
 2 copy known not{pop /.notdef}if
 true 3 1 roll get exec
 end}_d

/BuildChar {
 1 index /Encoding get exch get
 1 index /BuildGlyph get exec
}_d

FontName currentdict end definefont pop
%!PS-Adobe-3.0 Resource-Font
%%Title: DejaVu Sans Oblique
%%Copyright: Copyright (c) 2003 by Bitstream, Inc. All Rights Reserved. Copyright (c) 2006 by Tavmjong Bah. All Rights Reserved. DejaVu changes are in public domain 
%%Creator: Converted from TrueType to type 3 by PPR
25 dict begin
/_d{bind def}bind def
/_m{moveto}_d
/_l{lineto}_d
/_cl{closepath eofill}_d
/_c{curveto}_d
/_sc{7 -1 roll{setcachedevice}{pop pop pop pop pop pop}ifelse}_d
/_e{exec}_d
/FontName /DejaVuSans-Oblique def
/PaintType 0 def
/FontMatrix[.001 0 0 .001 0 0]def
/FontBBox[-1016 -350 1659 1068]def
/FontType 3 def
/Encoding [ /pi ] def
/FontInfo 10 dict dup begin
/FamilyName (DejaVu Sans) def
/FullName (DejaVu Sans Oblique) def
/Notice (Copyright (c) 2003 by Bitstream, Inc. All Rights Reserved. Copyright (c) 2006 by Tavmjong Bah. All Rights Reserved. DejaVu changes are in public domain ) def
/Weight (Oblique) def
/Version (Version 2.35) def
/ItalicAngle -11.0 def
/isFixedPitch false def
/UnderlinePosition -130 def
/UnderlineThickness 90 def
end readonly def
/CharStrings 2 dict dup begin
/.notdef 0 def
/pi{{602 0 55 -18 615 547 _sc
91 547 _m
615 547 _l
598 457 _l
529 457 _l
463 121 _l
459 97 460 80 466 70 _c
472 60 483 55 501 55 _c
506 55 512 55 520 57 _c
527 57 532 58 534 58 _c
521 -6 _l
509 -10 497 -13 485 -15 _c
472 -17 460 -18 448 -18 _c
408 -18 383 -7 373 13 _c
362 34 362 73 374 131 _c
437 457 _l
235 457 _l
146 0 _l
55 0 _l
144 457 _l
74 457 _l
}_e{91 547 _l
_cl}_e}_d
end readonly def

/BuildGlyph
 {exch begin
 CharStrings exch
 2 copy known not{pop /.notdef}if
 true 3 1 roll get exec
 end}_d

/BuildChar {
 1 index /Encoding get exch get
 1 index /BuildGlyph get exec
}_d

FontName currentdict end definefont pop
end
%%EndProlog
mpldict begin
11.609 195.378 translate
588.783 401.245 0 0 clipbox
gsave
0 0 m
588.782675 0 l
588.782675 401.244535 l
0 401.244535 l
cl
1.000 setgray
fill
grestore
gsave
71.934375 70.496875 m
574.134375 70.496875 l
574.134375 385.68516 l
71.934375 385.68516 l
cl
1.000 setgray
fill
grestore
0.800 setlinewidth
1 setlinejoin
2 setlinecap
[] 0 setdash
0.690 setgray
gsave
502.2 315.2 71.93 70.5 clipbox
75.486075 70.496875 m
75.486075 385.68516 l
stroke
grestore
0 setlinecap
0.000 setgray
gsave
/o {
gsave
newpath
translate
0.8 setlinewidth
1 setlinejoin
0 setlinecap
0 0 m
0 -3.5 l

gsave
0.000 setgray
fill
grestore
stroke
grestore
} bind def
75.4861 70.4969 o
grestore
gsave
57.986075 41.496875 translate
0.000000 rotate
/DejaVuSans findfont
15.399999999999999 scalefont
setfont
0.000000 10.570312 moveto
/minus glyphshow

12.903516 10.570312 moveto
/three glyphshow

/DejaVuSans-Oblique findfont
15.399999999999999 scalefont
setfont
22.701465 10.570312 moveto
/pi glyphshow

0.000000 4.775000 31.973047 1.375000 rectfill
/DejaVuSans findfont
15.399999999999999 scalefont
setfont
11.000000 -8.029688 moveto
/two glyphshow


grestore
2 setlinecap
0.690 setgray
gsave
502.2 315.2 71.93 70.5 clipbox
158.002175 70.496875 m
158.002175 385.68516 l
stroke
grestore
0 setlinecap
0.000 setgray
gsave
/o {
gsave
newpath
translate
0.8 setlinewidth
1 setlinejoin
0 setlinecap
0 0 m
0 -3.5 l

gsave
0.000 setgray
fill
grestore
stroke
grestore
} bind def
158.002 70.4969 o
grestore
gsave
142.002175 46.778125 translate
0.000000 rotate
/DejaVuSans findfont
22.0 scalefont
setfont
0.000000 0.968750 moveto
/minus glyphshow

/DejaVuSans-Oblique findfont
22.0 scalefont
setfont
18.433594 0.968750 moveto
/pi glyphshow


grestore
2 setlinecap
0.690 setgray
gsave
502.2 315.2 71.93 70.5 clipbox
240.518275 70.496875 m
240.518275 385.68516 l
stroke
grestore
0 setlinecap
0.000 setgray
gsave
/o {
gsave
newpath
translate
0.8 setlinewidth
1 setlinejoin
0 setlinecap
0 0 m
0 -3.5 l

gsave
0.000 setgray
fill
grestore
stroke
grestore
} bind def
240.518 70.4969 o
grestore
gsave
228.018275 44.496875 translate
0.000000 rotate
/DejaVuSans findfont
15.399999999999999 scalefont
setfont
0.000000 10.578125 moveto
/minus glyphshow

/DejaVuSans-Oblique findfont
15.399999999999999 scalefont
setfont
12.903516 10.578125 moveto
/pi glyphshow

0.000000 4.782813 22.175098 1.375000 rectfill
/DejaVuSans findfont
15.399999999999999 scalefont
setfont
6.000000 -8.021875 moveto
/two glyphshow


grestore
2 setlinecap
0.690 setgray
gsave
502.2 315.2 71.93 70.5 clipbox
323.034375 70.496875 m
323.034375 385.68516 l
stroke
grestore
0 setlinecap
0.000 setgray
gsave
/o {
gsave
newpath
translate
0.8 setlinewidth
1 setlinejoin
0 setlinecap
0 0 m
0 -3.5 l

gsave
0.000 setgray
fill
grestore
stroke
grestore
} bind def
323.034 70.4969 o
grestore
gsave
316.034375 46.778125 translate
0.000000 rotate
/DejaVuSans findfont
22.0 scalefont
setfont
0.000000 0.671875 moveto
/zero glyphshow


grestore
2 setlinecap
0.690 setgray
gsave
502.2 315.2 71.93 70.5 clipbox
405.550475 70.496875 m
405.550475 385.68516 l
stroke
grestore
0 setlinecap
0.000 setgray
gsave
/o {
gsave
newpath
translate
0.8 setlinewidth
1 setlinejoin
0 setlinecap
0 0 m
0 -3.5 l

gsave
0.000 setgray
fill
grestore
stroke
grestore
} bind def
405.55 70.4969 o
grestore
gsave
399.050475 44.496875 translate
0.000000 rotate
/DejaVuSans-Oblique findfont
15.399999999999999 scalefont
setfont
0.000000 10.578125 moveto
/pi glyphshow

0.000000 4.782813 9.797949 1.375000 rectfill
/DejaVuSans findfont
15.399999999999999 scalefont
setfont
0.000000 -8.021875 moveto
/two glyphshow


grestore
2 setlinecap
0.690 setgray
gsave
502.2 315.2 71.93 70.5 clipbox
488.066575 70.496875 m
488.066575 385.68516 l
stroke
grestore
0 setlinecap
0.000 setgray
gsave
/o {
gsave
newpath
translate
0.8 setlinewidth
1 setlinejoin
0 setlinecap
0 0 m
0 -3.5 l

gsave
0.000 setgray
fill
grestore
stroke
grestore
} bind def
488.067 70.4969 o
grestore
gsave
481.066575 46.778125 translate
0.000000 rotate
/DejaVuSans-Oblique findfont
22.0 scalefont
setfont
0.000000 0.968750 moveto
/pi glyphshow


grestore
2 setlinecap
0.690 setgray
gsave
502.2 315.2 71.93 70.5 clipbox
570.582675 70.496875 m
570.582675 385.68516 l
stroke
grestore
0 setlinecap
0.000 setgray
gsave
/o {
gsave
newpath
translate
0.8 setlinewidth
1 setlinejoin
0 setlinecap
0 0 m
0 -3.5 l

gsave
0.000 setgray
fill
grestore
stroke
grestore
} bind def
570.583 70.4969 o
grestore
gsave
559.582675 41.496875 translate
0.000000 rotate
/DejaVuSans findfont
15.399999999999999 scalefont
setfont
0.000000 10.570312 moveto
/three glyphshow

/DejaVuSans-Oblique findfont
15.399999999999999 scalefont
setfont
9.797949 10.570312 moveto
/pi glyphshow

0.000000 4.775000 19.069531 1.375000 rectfill
/DejaVuSans findfont
15.399999999999999 scalefont
setfont
5.000000 -8.029688 moveto
/two glyphshow


grestore
0.600 setlinewidth
gsave
/o {
gsave
newpath
translate
0.6 setlinewidth
1 setlinejoin
0 setlinecap
0 0 m
0 -2 l

gsave
0.000 setgray
fill
grestore
stroke
grestore
} bind def
89.2388 70.4969 o
grestore
gsave
/o {
gsave
newpath
translate
0.6 setlinewidth
1 setlinejoin
0 setlinecap
0 0 m
0 -2 l

gsave
0.000 setgray
fill
grestore
stroke
grestore
} bind def
102.991 70.4969 o
grestore
gsave
/o {
gsave
newpath
translate
0.6 setlinewidth
1 setlinejoin
0 setlinecap
0 0 m
0 -2 l

gsave
0.000 setgray
fill
grestore
stroke
grestore
} bind def
116.744 70.4969 o
grestore
gsave
/o {
gsave
newpath
translate
0.6 setlinewidth
1 setlinejoin
0 setlinecap
0 0 m
0 -2 l

gsave
0.000 setgray
fill
grestore
stroke
grestore
} bind def
130.497 70.4969 o
grestore
gsave
/o {
gsave
newpath
translate
0.6 setlinewidth
1 setlinejoin
0 setlinecap
0 0 m
0 -2 l

gsave
0.000 setgray
fill
grestore
stroke
grestore
} bind def
144.249 70.4969 o
grestore
gsave
/o {
gsave
newpath
translate
0.6 setlinewidth
1 setlinejoin
0 setlinecap
0 0 m
0 -2 l

gsave
0.000 setgray
fill
grestore
stroke
grestore
} bind def
171.755 70.4969 o
grestore
gsave
/o {
gsave
newpath
translate
0.6 setlinewidth
1 setlinejoin
0 setlinecap
0 0 m
0 -2 l

gsave
0.000 setgray
fill
grestore
stroke
grestore
} bind def
185.508 70.4969 o
grestore
gsave
/o {
gsave
newpath
translate
0.6 setlinewidth
1 setlinejoin
0 setlinecap
0 0 m
0 -2 l

gsave
0.000 setgray
fill
grestore
stroke
grestore
} bind def
199.26 70.4969 o
grestore
gsave
/o {
gsave
newpath
translate
0.6 setlinewidth
1 setlinejoin
0 setlinecap
0 0 m
0 -2 l

gsave
0.000 setgray
fill
grestore
stroke
grestore
} bind def
213.013 70.4969 o
grestore
gsave
/o {
gsave
newpath
translate
0.6 setlinewidth
1 setlinejoin
0 setlinecap
0 0 m
0 -2 l

gsave
0.000 setgray
fill
grestore
stroke
grestore
} bind def
226.766 70.4969 o
grestore
gsave
/o {
gsave
newpath
translate
0.6 setlinewidth
1 setlinejoin
0 setlinecap
0 0 m
0 -2 l

gsave
0.000 setgray
fill
grestore
stroke
grestore
} bind def
254.271 70.4969 o
grestore
gsave
/o {
gsave
newpath
translate
0.6 setlinewidth
1 setlinejoin
0 setlinecap
0 0 m
0 -2 l

gsave
0.000 setgray
fill
grestore
stroke
grestore
} bind def
268.024 70.4969 o
grestore
gsave
/o {
gsave
newpath
translate
0.6 setlinewidth
1 setlinejoin
0 setlinecap
0 0 m
0 -2 l

gsave
0.000 setgray
fill
grestore
stroke
grestore
} bind def
281.776 70.4969 o
grestore
gsave
/o {
gsave
newpath
translate
0.6 setlinewidth
1 setlinejoin
0 setlinecap
0 0 m
0 -2 l

gsave
0.000 setgray
fill
grestore
stroke
grestore
} bind def
295.529 70.4969 o
grestore
gsave
/o {
gsave
newpath
translate
0.6 setlinewidth
1 setlinejoin
0 setlinecap
0 0 m
0 -2 l

gsave
0.000 setgray
fill
grestore
stroke
grestore
} bind def
309.282 70.4969 o
grestore
gsave
/o {
gsave
newpath
translate
0.6 setlinewidth
1 setlinejoin
0 setlinecap
0 0 m
0 -2 l

gsave
0.000 setgray
fill
grestore
stroke
grestore
} bind def
336.787 70.4969 o
grestore
gsave
/o {
gsave
newpath
translate
0.6 setlinewidth
1 setlinejoin
0 setlinecap
0 0 m
0 -2 l

gsave
0.000 setgray
fill
grestore
stroke
grestore
} bind def
350.54 70.4969 o
grestore
gsave
/o {
gsave
newpath
translate
0.6 setlinewidth
1 setlinejoin
0 setlinecap
0 0 m
0 -2 l

gsave
0.000 setgray
fill
grestore
stroke
grestore
} bind def
364.292 70.4969 o
grestore
gsave
/o {
gsave
newpath
translate
0.6 setlinewidth
1 setlinejoin
0 setlinecap
0 0 m
0 -2 l

gsave
0.000 setgray
fill
grestore
stroke
grestore
} bind def
378.045 70.4969 o
grestore
gsave
/o {
gsave
newpath
translate
0.6 setlinewidth
1 setlinejoin
0 setlinecap
0 0 m
0 -2 l

gsave
0.000 setgray
fill
grestore
stroke
grestore
} bind def
391.798 70.4969 o
grestore
gsave
/o {
gsave
newpath
translate
0.6 setlinewidth
1 setlinejoin
0 setlinecap
0 0 m
0 -2 l

gsave
0.000 setgray
fill
grestore
stroke
grestore
} bind def
419.303 70.4969 o
grestore
gsave
/o {
gsave
newpath
translate
0.6 setlinewidth
1 setlinejoin
0 setlinecap
0 0 m
0 -2 l

gsave
0.000 setgray
fill
grestore
stroke
grestore
} bind def
433.056 70.4969 o
grestore
gsave
/o {
gsave
newpath
translate
0.6 setlinewidth
1 setlinejoin
0 setlinecap
0 0 m
0 -2 l

gsave
0.000 setgray
fill
grestore
stroke
grestore
} bind def
446.809 70.4969 o
grestore
gsave
/o {
gsave
newpath
translate
0.6 setlinewidth
1 setlinejoin
0 setlinecap
0 0 m
0 -2 l

gsave
0.000 setgray
fill
grestore
stroke
grestore
} bind def
460.561 70.4969 o
grestore
gsave
/o {
gsave
newpath
translate
0.6 setlinewidth
1 setlinejoin
0 setlinecap
0 0 m
0 -2 l

gsave
0.000 setgray
fill
grestore
stroke
grestore
} bind def
474.314 70.4969 o
grestore
gsave
/o {
gsave
newpath
translate
0.6 setlinewidth
1 setlinejoin
0 setlinecap
0 0 m
0 -2 l

gsave
0.000 setgray
fill
grestore
stroke
grestore
} bind def
501.819 70.4969 o
grestore
gsave
/o {
gsave
newpath
translate
0.6 setlinewidth
1 setlinejoin
0 setlinecap
0 0 m
0 -2 l

gsave
0.000 setgray
fill
grestore
stroke
grestore
} bind def
515.572 70.4969 o
grestore
gsave
/o {
gsave
newpath
translate
0.6 setlinewidth
1 setlinejoin
0 setlinecap
0 0 m
0 -2 l

gsave
0.000 setgray
fill
grestore
stroke
grestore
} bind def
529.325 70.4969 o
grestore
gsave
/o {
gsave
newpath
translate
0.6 setlinewidth
1 setlinejoin
0 setlinecap
0 0 m
0 -2 l

gsave
0.000 setgray
fill
grestore
stroke
grestore
} bind def
543.077 70.4969 o
grestore
gsave
/o {
gsave
newpath
translate
0.6 setlinewidth
1 setlinejoin
0 setlinecap
0 0 m
0 -2 l

gsave
0.000 setgray
fill
grestore
stroke
grestore
} bind def
556.83 70.4969 o
grestore
/DejaVuSans findfont
22.000 scalefont
setfont
gsave
316.526563 11.778125 translate
0.000000 rotate
0.000000 0.000000 m /x glyphshow
grestore
0.800 setlinewidth
2 setlinecap
0.690 setgray
gsave
502.2 315.2 71.93 70.5 clipbox
71.934375 70.496875 m
574.134375 70.496875 l
stroke
grestore
0 setlinecap
0.000 setgray
gsave
/o {
gsave
newpath
translate
0.8 setlinewidth
1 setlinejoin
0 setlinecap
0 0 m
-3.5 0 l

gsave
0.000 setgray
fill
grestore
stroke
grestore
} bind def
71.9344 70.4969 o
grestore
gsave
32.496875 62.137500 translate
0.000000 rotate
0.000000 0.000000 m /minus glyphshow
18.433594 0.000000 m /three glyphshow
grestore
2 setlinecap
0.690 setgray
gsave
502.2 315.2 71.93 70.5 clipbox
71.934375 123.028256 m
574.134375 123.028256 l
stroke
grestore
0 setlinecap
0.000 setgray
gsave
/o {
gsave
newpath
translate
0.8 setlinewidth
1 setlinejoin
0 setlinecap
0 0 m
-3.5 0 l

gsave
0.000 setgray
fill
grestore
stroke
grestore
} bind def
71.9344 123.028 o
grestore
gsave
32.496875 114.668881 translate
0.000000 rotate
0.000000 0.000000 m /minus glyphshow
18.433594 0.000000 m /two glyphshow
grestore
2 setlinecap
0.690 setgray
gsave
502.2 315.2 71.93 70.5 clipbox
71.934375 175.559637 m
574.134375 175.559637 l
stroke
grestore
0 setlinecap
0.000 setgray
gsave
/o {
gsave
newpath
translate
0.8 setlinewidth
1 setlinejoin
0 setlinecap
0 0 m
-3.5 0 l

gsave
0.000 setgray
fill
grestore
stroke
grestore
} bind def
71.9344 175.56 o
grestore
gsave
32.496875 167.200262 translate
0.000000 rotate
0.000000 0.000000 m /minus glyphshow
18.433594 0.000000 m /one glyphshow
grestore
2 setlinecap
0.690 setgray
gsave
502.2 315.2 71.93 70.5 clipbox
71.934375 228.091017 m
574.134375 228.091017 l
stroke
grestore
0 setlinecap
0.000 setgray
gsave
/o {
gsave
newpath
translate
0.8 setlinewidth
1 setlinejoin
0 setlinecap
0 0 m
-3.5 0 l

gsave
0.000 setgray
fill
grestore
stroke
grestore
} bind def
71.9344 228.091 o
grestore
gsave
50.934375 219.731642 translate
0.000000 rotate
0.000000 0.000000 m /zero glyphshow
grestore
2 setlinecap
0.690 setgray
gsave
502.2 315.2 71.93 70.5 clipbox
71.934375 280.622398 m
574.134375 280.622398 l
stroke
grestore
0 setlinecap
0.000 setgray
gsave
/o {
gsave
newpath
translate
0.8 setlinewidth
1 setlinejoin
0 setlinecap
0 0 m
-3.5 0 l

gsave
0.000 setgray
fill
grestore
stroke
grestore
} bind def
71.9344 280.622 o
grestore
gsave
50.934375 272.263023 translate
0.000000 rotate
0.000000 0.000000 m /one glyphshow
grestore
2 setlinecap
0.690 setgray
gsave
502.2 315.2 71.93 70.5 clipbox
71.934375 333.153779 m
574.134375 333.153779 l
stroke
grestore
0 setlinecap
0.000 setgray
gsave
/o {
gsave
newpath
translate
0.8 setlinewidth
1 setlinejoin
0 setlinecap
0 0 m
-3.5 0 l

gsave
0.000 setgray
fill
grestore
stroke
grestore
} bind def
71.9344 333.154 o
grestore
gsave
50.934375 324.794404 translate
0.000000 rotate
0.000000 0.000000 m /two glyphshow
grestore
2 setlinecap
0.690 setgray
gsave
502.2 315.2 71.93 70.5 clipbox
71.934375 385.68516 m
574.134375 385.68516 l
stroke
grestore
0 setlinecap
0.000 setgray
gsave
/o {
gsave
newpath
translate
0.8 setlinewidth
1 setlinejoin
0 setlinecap
0 0 m
-3.5 0 l

gsave
0.000 setgray
fill
grestore
stroke
grestore
} bind def
71.9344 385.685 o
grestore
gsave
50.934375 377.325785 translate
0.000000 rotate
0.000000 0.000000 m /three glyphshow
grestore
gsave
23.918750 194.981642 translate
90.000000 rotate
0.000000 0.000000 m /t glyphshow
8.625977 0.000000 m /a glyphshow
22.107422 0.000000 m /n glyphshow
36.050781 0.000000 m /parenleft glyphshow
44.633789 0.000000 m /x glyphshow
57.653320 0.000000 m /parenright glyphshow
grestore
1.500 setlinewidth
2 setlinecap
0.122 0.467 0.706 setrgbcolor
gsave
502.2 315.2 71.93 70.5 clipbox
87.331832 -1 m
88.219103 15.628608 l
89.269731 32.502578 l
90.845672 53.577647 l
92.421613 70.831608 l
93.997555 85.241061 l
95.573496 97.476202 l
97.149438 108.012272 l
98.725379 117.195666 l
100.301321 125.284843 l
102.402576 134.701791 l
104.503831 142.867731 l
106.605086 150.037929 l
108.706342 156.403235 l
110.807597 162.109256 l
112.908852 167.269067 l
115.535421 173.084849 l
118.16199 178.321492 l
120.788559 183.084066 l
123.940442 188.288286 l
127.092325 193.039377 l
130.769521 198.124544 l
134.446718 202.818575 l
138.649229 207.812221 l
143.377053 213.075932 l
149.155505 219.159753 l
158.085839 228.174682 l
168.592116 238.826786 l
174.370567 245.01056 l
179.098392 250.399615 l
183.300902 255.545852 l
186.978099 260.413507 l
190.129982 264.930862 l
193.281865 269.845573 l
195.908434 274.312835 l
198.535003 279.191615 l
201.161572 284.569685 l
203.788141 290.559362 l
205.889396 295.888341 l
207.990651 301.797805 l
210.091906 308.410435 l
212.193162 315.885092 l
214.294417 324.431329 l
215.870358 331.710464 l
217.4463 339.905573 l
219.022241 349.219043 l
220.598183 359.917229 l
222.174124 372.357931 l
223.750065 387.033376 l
225.124641 402.244535 l
252.364899 -1 m
253.167639 14.166959 l
254.218266 31.25168 l
255.794208 52.565289 l
257.370149 69.994167 l
258.94609 84.535666 l
260.522032 96.872913 l
262.097973 107.48955 l
263.673915 116.737615 l
265.249856 124.87948 l
266.825798 132.114703 l
268.927053 140.613451 l
271.028308 148.050174 l
273.129563 154.632049 l
275.230819 160.516258 l
277.332074 165.824266 l
279.958643 171.792416 l
282.585212 177.153001 l
285.211781 182.017429 l
287.83835 186.472812 l
290.990233 191.375844 l
294.142116 195.883754 l
297.819312 200.742611 l
302.021823 205.881106 l
306.749647 211.263771 l
312.002785 216.89435 l
319.357178 224.407803 l
335.116593 240.390891 l
340.369731 246.084321 l
345.097555 251.55009 l
348.774752 256.110633 l
352.451948 261.025542 l
355.603831 265.593643 l
358.755714 270.571116 l
361.382283 275.102271 l
364.008852 280.058292 l
366.635421 285.530558 l
368.736676 290.357769 l
370.837931 295.665777 l
372.939187 301.549985 l
375.040442 308.13186 l
377.141697 315.568584 l
379.242952 324.067331 l
380.818894 331.302555 l
382.394835 339.444419 l
383.970777 348.692485 l
385.546718 359.309121 l
387.12266 371.646369 l
388.698601 386.187868 l
390.157974 402.244535 l
417.396803 -1 m
418.116174 12.686225 l
419.166802 29.985761 l
420.742743 51.542099 l
422.318685 69.148659 l
423.894626 83.824104 l
425.470567 96.264806 l
427.046509 106.962991 l
428.62245 116.276462 l
430.198392 124.471571 l
431.774333 131.750706 l
433.875588 140.296943 l
435.976844 147.771599 l
438.078099 154.384229 l
440.179354 160.293694 l
442.280609 165.622673 l
444.907178 171.61235 l
447.533747 176.99042 l
450.160316 181.869199 l
452.786885 186.336462 l
455.938768 191.251172 l
459.090651 195.768528 l
462.767848 200.636182 l
466.970358 205.78242 l
471.698183 211.171475 l
476.951321 216.806855 l
483.7804 223.795306 l
500.590442 240.857683 l
505.84358 246.579224 l
510.04609 251.449812 l
513.723287 256.003257 l
517.400484 260.909108 l
520.552367 265.467481 l
523.704249 270.432919 l
526.330819 274.951816 l
528.957388 279.893011 l
531.583957 285.347184 l
533.685212 290.156936 l
535.786467 295.444123 l
537.887722 301.303267 l
539.988978 307.854634 l
542.090233 315.25375 l
544.191488 323.705445 l
545.767429 330.897191 l
547.343371 338.986369 l
548.919312 348.169762 l
550.495254 358.705833 l
552.071195 370.940973 l
553.647137 385.350427 l
555.192188 402.244535 l
555.192188 402.244535 l
stroke
grestore
2.000 setlinewidth
0.000 setgray
gsave
502.2 315.2 71.93 70.5 clipbox
71.934375 228.091017 m
574.134375 228.091017 l
stroke
grestore
gsave
502.2 315.2 71.93 70.5 clipbox
323.034375 70.496875 m
323.034375 385.68516 l
stroke
grestore
0.800 setlinewidth
0 setlinejoin
[] 0 setdash
gsave
71.934375 70.496875 m
71.934375 385.68516 l
stroke
grestore
gsave
574.134375 70.496875 m
574.134375 385.68516 l
stroke
grestore
gsave
71.934375 70.496875 m
574.134375 70.496875 l
stroke
grestore
gsave
71.934375 385.68516 m
574.134375 385.68516 l
stroke
grestore

end
showpage
