%!PS-Adobe-2.0 EPSF-2.0
%%Title: Figs/transfer_function.dia
%%Creator: Dia v0.97+git
%%CreationDate: Fri Jun  4 08:57:59 2021
%%For: cef
%%Orientation: Portrait
%%Magnification: 1.0000
%%BoundingBox: 0 0 327 60
%%BeginSetup
%%EndSetup
%%EndComments
%%BeginProlog
[ /.notdef /.notdef /.notdef /.notdef /.notdef /.notdef /.notdef /.notdef /.notdef /.notdef
/.notdef /.notdef /.notdef /.notdef /.notdef /.notdef /.notdef /.notdef /.notdef /.notdef
/.notdef /.notdef /.notdef /.notdef /.notdef /.notdef /.notdef /.notdef /.notdef /.notdef
/.notdef /.notdef /space /exclam /quotedbl /numbersign /dollar /percent /ampersand /quoteright
/parenleft /parenright /asterisk /plus /comma /hyphen /period /slash /zero /one
/two /three /four /five /six /seven /eight /nine /colon /semicolon
/less /equal /greater /question /at /A /B /C /D /E
/F /G /H /I /J /K /L /M /N /O
/P /Q /R /S /T /U /V /W /X /Y
/Z /bracketleft /backslash /bracketright /asciicircum /underscore /quoteleft /a /b /c
/d /e /f /g /h /i /j /k /l /m
/n /o /p /q /r /s /t /u /v /w
/x /y /z /braceleft /bar /braceright /asciitilde /.notdef /.notdef /.notdef
/.notdef /.notdef /.notdef /.notdef /.notdef /.notdef /.notdef /.notdef /.notdef /.notdef
/.notdef /.notdef /.notdef /.notdef /.notdef /.notdef /.notdef /.notdef /.notdef /.notdef
/.notdef /.notdef /.notdef /.notdef /.notdef /.notdef /.notdef /.notdef /.notdef /.notdef
/space /exclamdown /cent /sterling /currency /yen /brokenbar /section /dieresis /copyright
/ordfeminine /guillemotleft /logicalnot /hyphen /registered /macron /degree /plusminus /twosuperior /threesuperior
/acute /mu /paragraph /periodcentered /cedilla /onesuperior /ordmasculine /guillemotright /onequarter /onehalf
/threequarters /questiondown /Agrave /Aacute /Acircumflex /Atilde /Adieresis /Aring /AE /Ccedilla
/Egrave /Eacute /Ecircumflex /Edieresis /Igrave /Iacute /Icircumflex /Idieresis /Eth /Ntilde
/Ograve /Oacute /Ocircumflex /Otilde /Odieresis /multiply /Oslash /Ugrave /Uacute /Ucircumflex
/Udieresis /Yacute /Thorn /germandbls /agrave /aacute /acircumflex /atilde /adieresis /aring
/ae /ccedilla /egrave /eacute /ecircumflex /edieresis /igrave /iacute /icircumflex /idieresis
/eth /ntilde /ograve /oacute /ocircumflex /otilde /odieresis /divide /oslash /ugrave
/uacute /ucircumflex /udieresis /yacute /thorn /ydieresis] /isolatin1encoding exch def
/cp {closepath} bind def
/c {curveto} bind def
/f {fill} bind def
/a {arc} bind def
/ef {eofill} bind def
/ex {exch} bind def
/gr {grestore} bind def
/gs {gsave} bind def
/sa {save} bind def
/rs {restore} bind def
/l {lineto} bind def
/m {moveto} bind def
/rm {rmoveto} bind def
/n {newpath} bind def
/s {stroke} bind def
/sh {show} bind def
/slc {setlinecap} bind def
/slj {setlinejoin} bind def
/slw {setlinewidth} bind def
/srgb {setrgbcolor} bind def
/rot {rotate} bind def
/sc {scale} bind def
/sd {setdash} bind def
/ff {findfont} bind def
/sf {setfont} bind def
/scf {scalefont} bind def
/sw {stringwidth pop} bind def
/tr {translate} bind def

/ellipsedict 8 dict def
ellipsedict /mtrx matrix put
/ellipse
{ ellipsedict begin
   /endangle exch def
   /startangle exch def
   /yrad exch def
   /xrad exch def
   /y exch def
   /x exch def   /savematrix mtrx currentmatrix def
   x y tr xrad yrad sc
   0 0 1 startangle endangle arc
   savematrix setmatrix
   end
} def

/mergeprocs {
dup length
3 -1 roll
dup
length
dup
5 1 roll
3 -1 roll
add
array cvx
dup
3 -1 roll
0 exch
putinterval
dup
4 2 roll
putinterval
} bind def
/dpi_x 300 def
/dpi_y 300 def
/conicto {
    /to_y exch def
    /to_x exch def
    /conic_cntrl_y exch def
    /conic_cntrl_x exch def
    currentpoint
    /p0_y exch def
    /p0_x exch def
    /p1_x p0_x conic_cntrl_x p0_x sub 2 3 div mul add def
    /p1_y p0_y conic_cntrl_y p0_y sub 2 3 div mul add def
    /p2_x p1_x to_x p0_x sub 1 3 div mul add def
    /p2_y p1_y to_y p0_y sub 1 3 div mul add def
    p1_x p1_y p2_x p2_y to_x to_y curveto
} bind def
/start_ol { gsave 1.1 dpi_x div dup scale} bind def
/end_ol { closepath fill grestore } bind def
28.346000 -28.346000 scale
4.075000 -2.050000 translate
%%EndProlog


0.100000 slw
[] 0 sd
0 slj
0 slc
1.000000 1.000000 1.000000 srgb
n 0.000000 0.000000 m 3.500000 0.000000 l 3.500000 2.000000 l 0.000000 2.000000 l ef
0.000000 0.000000 0.000000 srgb
n 0.000000 0.000000 m 3.500000 0.000000 l 3.500000 2.000000 l 0.000000 2.000000 l cp s
0.100000 slw
[] 0 sd
0 slc
n -2.500000 1.000000 m -0.536517 1.000000 l s
[] 0 sd
0 slj
0 slc
n -0.161517 1.000000 m -0.661517 1.250000 l -0.536517 1.000000 l -0.661517 0.750000 l ef
n -0.161517 1.000000 m -0.661517 1.250000 l -0.536517 1.000000 l -0.661517 0.750000 l cp s
0.100000 slw
[] 0 sd
0 slc
n 3.500000 1.000000 m 5.463562 0.965349 l s
[] 0 sd
0 slj
0 slc
n 5.838504 0.958733 m 5.342993 1.217516 l 5.463562 0.965349 l 5.334171 0.717594 l ef
n 5.838504 0.958733 m 5.342993 1.217516 l 5.463562 0.965349 l 5.334171 0.717594 l cp s
gsave 6.175000 1.175000 translate 0.035278 -0.035278 scale
start_ol
2081 2132 moveto
2831 3174 lineto
3121 3570 3121 3680 conicto
3121 3742 3058 3782 conicto
2996 3823 2703 3840 conicto
2732 3968 lineto
3970 3968 lineto
3947 3840 lineto
3767 3817 3700 3792 conicto
3595 3749 3493 3658 conicto
3357 3538 3098 3187 conicto
2133 1869 lineto
1843 878 lineto
1735 515 1735 376 conicto
1735 287 1768 240 conicto
1802 194 1887 165 conicto
1997 131 2223 128 conicto
2194 0 lineto
535 0 lineto
570 128 lineto
817 134 898 168 conicto
1029 220 1093 306 conicto
1191 439 1296 781 conicto
1642 1952 lineto
1221 3308 lineto
1108 3653 1013 3737 conicto
919 3821 683 3840 conicto
712 3968 lineto
2168 3968 lineto
2133 3840 lineto
1860 3820 1822 3806 conicto
1758 3787 1717 3727 conicto
1677 3668 1677 3590 conicto
1677 3474 1761 3196 conicto
2081 2132 lineto
end_ol grestore 
gsave 6.614589 1.175000 translate 0.035278 -0.035278 scale
start_ol
1119 -1234 moveto
1020 -1280 lineto
674 -624 523 -121 conicto
407 272 407 671 conicto
407 1602 840 2339 conicto
1372 3240 2563 4096 conicto
2633 3995 lineto
2096 3599 1756 3108 conicto
1331 2495 1061 1628 conicto
791 761 791 50 conicto
791 -494 1119 -1234 conicto
end_ol grestore 
gsave 6.876840 1.175000 translate 0.035278 -0.035278 scale
start_ol
2159 2688 moveto
1982 1856 lineto
1875 1856 lineto
1860 2225 1709 2392 conicto
1558 2560 1334 2560 conicto
1154 2560 1048 2458 conicto
942 2357 942 2213 conicto
942 2115 984 2025 conicto
1026 1935 1169 1774 conicto
1546 1350 1656 1134 conicto
1767 919 1767 728 conicto
1767 417 1515 176 conicto
1264 -64 881 -64 conicto
671 -64 398 78 conicto
302 128 250 128 conicto
119 128 53 -64 conicto
-55 -64 lineto
122 896 lineto
230 896 lineto
247 441 413 252 conicto
579 64 866 64 conicto
1087 64 1216 190 conicto
1346 317 1346 501 conicto
1346 620 1299 721 conicto
1218 899 957 1214 conicto
697 1529 623 1686 conicto
549 1844 549 2002 conicto
549 2290 754 2489 conicto
959 2688 1281 2688 conicto
1374 2688 1450 2668 conicto
1491 2655 1640 2575 conicto
1790 2496 1839 2496 conicto
1964 2496 2049 2688 conicto
2159 2688 lineto
end_ol grestore 
gsave 7.184046 1.175000 translate 0.035278 -0.035278 scale
start_ol
866 4041 moveto
965 4096 lineto
1311 3443 1459 2940 conicto
1578 2547 1578 2148 conicto
1578 1214 1145 480 conicto
610 -424 -578 -1280 conicto
-648 -1190 lineto
-111 -792 229 -303 conicto
654 310 924 1178 conicto
1194 2047 1194 2758 conicto
1194 3301 866 4041 conicto
end_ol grestore 
gsave -4.075000 1.175000 translate 0.035278 -0.035278 scale
start_ol
3075 3968 moveto
4409 3968 lineto
4377 3840 lineto
4095 3800 3884 3673 conicto
3673 3547 3310 3168 conicto
2287 2122 lineto
2575 1051 lineto
2616 900 2726 582 conicto
2796 386 2865 304 conicto
2935 223 3041 179 conicto
3148 136 3363 128 conicto
3331 0 lineto
1784 0 lineto
1816 128 lineto
2054 136 2159 216 conicto
2238 272 2238 363 conicto
2238 442 2162 711 conicto
1886 1713 lineto
962 770 lineto
692 500 639 415 conicto
607 364 607 315 conicto
607 230 695 176 conicto
736 154 942 128 conicto
913 0 lineto
-398 0 lineto
-366 128 lineto
-119 150 38 234 conicto
267 362 671 744 conicto
1816 1924 lineto
1503 3073 lineto
1361 3586 1254 3704 conicto
1148 3823 884 3840 conicto
913 3968 lineto
2322 3968 lineto
2287 3840 lineto
2092 3840 2024 3816 conicto
1956 3792 1919 3743 conicto
1883 3694 1883 3632 conicto
1883 3565 1953 3318 conicto
2220 2339 lineto
2839 2958 lineto
3205 3327 3342 3552 conicto
3392 3626 3392 3684 conicto
3392 3747 3336 3782 conicto
3258 3832 3043 3840 conicto
3075 3968 lineto
end_ol grestore 
gsave -3.592954 1.175000 translate 0.035278 -0.035278 scale
start_ol
1119 -1234 moveto
1020 -1280 lineto
674 -624 523 -121 conicto
407 272 407 671 conicto
407 1602 840 2339 conicto
1372 3240 2563 4096 conicto
2633 3995 lineto
2096 3599 1756 3108 conicto
1331 2495 1061 1628 conicto
791 761 791 50 conicto
791 -494 1119 -1234 conicto
end_ol grestore 
gsave -3.330702 1.175000 translate 0.035278 -0.035278 scale
start_ol
2159 2688 moveto
1982 1856 lineto
1875 1856 lineto
1860 2225 1709 2392 conicto
1558 2560 1334 2560 conicto
1154 2560 1048 2458 conicto
942 2357 942 2213 conicto
942 2115 984 2025 conicto
1026 1935 1169 1774 conicto
1546 1350 1656 1134 conicto
1767 919 1767 728 conicto
1767 417 1515 176 conicto
1264 -64 881 -64 conicto
671 -64 398 78 conicto
302 128 250 128 conicto
119 128 53 -64 conicto
-55 -64 lineto
122 896 lineto
230 896 lineto
247 441 413 252 conicto
579 64 866 64 conicto
1087 64 1216 190 conicto
1346 317 1346 501 conicto
1346 620 1299 721 conicto
1218 899 957 1214 conicto
697 1529 623 1686 conicto
549 1844 549 2002 conicto
549 2290 754 2489 conicto
959 2688 1281 2688 conicto
1374 2688 1450 2668 conicto
1491 2655 1640 2575 conicto
1790 2496 1839 2496 conicto
1964 2496 2049 2688 conicto
2159 2688 lineto
end_ol grestore 
gsave -3.023496 1.175000 translate 0.035278 -0.035278 scale
start_ol
866 4041 moveto
965 4096 lineto
1311 3443 1459 2940 conicto
1578 2547 1578 2148 conicto
1578 1214 1145 480 conicto
610 -424 -578 -1280 conicto
-648 -1190 lineto
-111 -792 229 -303 conicto
654 310 924 1178 conicto
1194 2047 1194 2758 conicto
1194 3301 866 4041 conicto
end_ol grestore 
gsave 1.000000 1.200000 translate 0.035278 -0.035278 scale
start_ol
1468 2176 moveto
3287 2176 lineto
3575 3157 lineto
3656 3445 3656 3603 conicto
3656 3679 3619 3733 conicto
3583 3787 3507 3813 conicto
3432 3840 3211 3840 conicto
3240 3968 lineto
4827 3968 lineto
4792 3840 lineto
4592 3843 4493 3799 conicto
4353 3737 4287 3641 conicto
4191 3503 4092 3157 conicto
3397 771 lineto
3310 486 3310 363 conicto
3310 257 3387 202 conicto
3464 148 3755 128 conicto
3723 0 lineto
2188 0 lineto
2229 128 lineto
2456 134 2531 167 conicto
2648 218 2700 297 conicto
2775 407 2886 776 conicto
3240 1984 lineto
1412 1984 lineto
1055 771 lineto
971 491 971 363 conicto
971 257 1046 202 conicto
1122 148 1412 128 conicto
1389 0 lineto
-157 0 lineto
-119 128 lineto
110 134 186 167 conicto
302 218 357 297 conicto
433 413 543 776 conicto
1241 3161 lineto
1325 3453 1325 3604 conicto
1325 3680 1289 3734 conicto
1253 3788 1176 3814 conicto
1099 3840 875 3840 conicto
910 3968 lineto
2465 3968 lineto
2433 3840 lineto
2238 3843 2145 3799 conicto
2008 3740 1944 3643 conicto
1857 3514 1752 3155 conicto
1468 2176 lineto
end_ol grestore 
gsave 1.569466 1.200000 translate 0.035278 -0.035278 scale
start_ol
1119 -1234 moveto
1020 -1280 lineto
674 -624 523 -121 conicto
407 272 407 671 conicto
407 1602 840 2339 conicto
1372 3240 2563 4096 conicto
2633 3995 lineto
2096 3599 1756 3108 conicto
1331 2495 1061 1628 conicto
791 761 791 50 conicto
791 -494 1119 -1234 conicto
end_ol grestore 
gsave 1.831718 1.200000 translate 0.035278 -0.035278 scale
start_ol
2159 2688 moveto
1982 1856 lineto
1875 1856 lineto
1860 2225 1709 2392 conicto
1558 2560 1334 2560 conicto
1154 2560 1048 2458 conicto
942 2357 942 2213 conicto
942 2115 984 2025 conicto
1026 1935 1169 1774 conicto
1546 1350 1656 1134 conicto
1767 919 1767 728 conicto
1767 417 1515 176 conicto
1264 -64 881 -64 conicto
671 -64 398 78 conicto
302 128 250 128 conicto
119 128 53 -64 conicto
-55 -64 lineto
122 896 lineto
230 896 lineto
247 441 413 252 conicto
579 64 866 64 conicto
1087 64 1216 190 conicto
1346 317 1346 501 conicto
1346 620 1299 721 conicto
1218 899 957 1214 conicto
697 1529 623 1686 conicto
549 1844 549 2002 conicto
549 2290 754 2489 conicto
959 2688 1281 2688 conicto
1374 2688 1450 2668 conicto
1491 2655 1640 2575 conicto
1790 2496 1839 2496 conicto
1964 2496 2049 2688 conicto
2159 2688 lineto
end_ol grestore 
gsave 2.138924 1.200000 translate 0.035278 -0.035278 scale
start_ol
866 4041 moveto
965 4096 lineto
1311 3443 1459 2940 conicto
1578 2547 1578 2148 conicto
1578 1214 1145 480 conicto
610 -424 -578 -1280 conicto
-648 -1190 lineto
-111 -792 229 -303 conicto
654 310 924 1178 conicto
1194 2047 1194 2758 conicto
1194 3301 866 4041 conicto
end_ol grestore 
showpage
